%YAML 1.1
%TAG !u! tag:unity3d.com,2011:
--- !u!21 &2100000
Material:
  serializedVersion: 6
  m_ObjectHideFlags: 0
  m_CorrespondingSourceObject: {fileID: 0}
  m_PrefabInstance: {fileID: 0}
  m_PrefabAsset: {fileID: 0}
  m_Name: Galaxy_mat
  m_Shader: {fileID: 4800000, guid: f1d12ddbfb576f44d8bd9396906bcc7b, type: 3}
  m_ShaderKeywords: 
  m_LightmapFlags: 4
  m_EnableInstancingVariants: 0
  m_DoubleSidedGI: 0
  m_CustomRenderQueue: -1
  stringTagMap: {}
  disabledShaderPasses: []
  m_SavedProperties:
    serializedVersion: 3
    m_TexEnvs:
    - _MainTex:
        m_Texture: {fileID: 0}
        m_Scale: {x: 1, y: 1}
        m_Offset: {x: 0, y: 0}
    m_Floats:
    - _Brightness: 2
    - _CLAMPOUT: 0
    - _Darkmatter: 25
    - _Distfading: 68
    - _Formuparam: 530.67
    - _Iterations: 16.8
    - _Saturation: 85
    - _StepSize: 130
    - _Tile: 700
    - _Volsteps: 16.5
    - _Zoom: 800
    m_Colors:
    - _Center: {r: 1, g: 0.3, b: 0.5, a: 0}
    - _Color: {r: 1, g: 1, b: 1, a: 1}
    - _Rotation: {r: 35, g: 25, b: 75, a: 0.1}
    - _Scroll: {r: 0, g: 1, b: 0.6, a: 0.38}
